2 Introduction | A Minimal Book Example
…
You can write citations, too. For example, we are using the bookdown package (Xie 2020) in this sample book, which was built on top of R Markdown and knitr (Xie 2015).

2.1 Here adding new test

library(pins)
board_register(name = "pins_board", url = "https://raw.githubusercontent.com/predictcrypto/pins/master/", board = "datatxt")
cryptodata <- pin_get(name = "hitBTC_orderbook")

Show data

cryptodata

## # A tibble: 242,218 x 27
##    pair  symbol quote_currency ask_1_price ask_1_quantity ask_2_price ask_2_quantity ask_3_price ask_3_quantity
##    <chr> <chr>  <chr>                <dbl>          <dbl>       <dbl>          <dbl>       <dbl>          <dbl>
##  1 BTCU~ BTC    USD             15685.               2     15685.           0.000140  15685.              0.108
##  2 ETHU~ ETH    USD               463.               0.4     463.           0.549       463.              1.08 
##  3 EOSU~ EOS    USD                 2.50            60         2.50        62.8           2.50         1102.   
##  4 LTCU~ LTC    USD                59.3              3.75     59.3         60            59.3             6.5  
##  5 BSVU~ BSV    USD               159.               0.6     159.          18           159.              1.38 
##  6 ADAU~ ADA    USD                 0.106          775         0.106     2635             0.106        1481    
##  7 ZECU~ ZEC    USD                58.9             10        58.9          2.6          58.9             6.48 
##  8 TRXU~ TRX    USD                 0.0250        1050         0.0250   62755             0.0250       3630    
##  9 HTUSD HT     USD                 3.66           100.        3.67      1394.            3.67         2253.   
## 10 XMRU~ XMR    USD               113.               2.65    113.           5.54        113.              2.07 
## # ... with 242,208 more rows, and 18 more variables: ask_4_price <dbl>, ask_4_quantity <dbl>, ask_5_price <dbl>,
## #   ask_5_quantity <dbl>, bid_1_price <dbl>, bid_1_quantity <dbl>, bid_2_price <dbl>, bid_2_quantity <dbl>,
## #   bid_3_price <dbl>, bid_3_quantity <dbl>, bid_4_price <dbl>, bid_4_quantity <dbl>, bid_5_price <dbl>,
## #   bid_5_quantity <dbl>, date_time_utc <dttm>, date <date>, pkDummy <chr>, pkey <chr>

Show nested data

library(tidyverse)
cryptodata <- group_by(cryptodata, symbol)
nest(cryptodata)

## # A tibble: 218 x 2
## # Groups:   symbol [218]
##    symbol data                 
##    <chr>  <list>               
##  1 BTC    <tibble [2,272 x 26]>
##  2 ETH    <tibble [1,396 x 26]>
##  3 EOS    <tibble [2,225 x 26]>
##  4 LTC    <tibble [2,272 x 26]>
##  5 BSV    <tibble [1,515 x 26]>
##  6 ADA    <tibble [1,158 x 26]>
##  7 ZEC    <tibble [1,113 x 26]>
##  8 TRX    <tibble [1,493 x 26]>
##  9 HT     <tibble [2,207 x 26]>
## 10 XMR    <tibble [2,266 x 26]>
## # ... with 208 more rows

What does DT look like

library(DT)
cryptodata

## # A tibble: 242,218 x 27
## # Groups:   symbol [218]
##    pair  symbol quote_currency ask_1_price ask_1_quantity ask_2_price ask_2_quantity ask_3_price ask_3_quantity
##    <chr> <chr>  <chr>                <dbl>          <dbl>       <dbl>          <dbl>       <dbl>          <dbl>
##  1 BTCU~ BTC    USD             15685.               2     15685.           0.000140  15685.              0.108
##  2 ETHU~ ETH    USD               463.               0.4     463.           0.549       463.              1.08 
##  3 EOSU~ EOS    USD                 2.50            60         2.50        62.8           2.50         1102.   
##  4 LTCU~ LTC    USD                59.3              3.75     59.3         60            59.3             6.5  
##  5 BSVU~ BSV    USD               159.               0.6     159.          18           159.              1.38 
##  6 ADAU~ ADA    USD                 0.106          775         0.106     2635             0.106        1481    
##  7 ZECU~ ZEC    USD                58.9             10        58.9          2.6          58.9             6.48 
##  8 TRXU~ TRX    USD                 0.0250        1050         0.0250   62755             0.0250       3630    
##  9 HTUSD HT     USD                 3.66           100.        3.67      1394.            3.67         2253.   
## 10 XMRU~ XMR    USD               113.               2.65    113.           5.54        113.              2.07 
## # ... with 242,208 more rows, and 18 more variables: ask_4_price <dbl>, ask_4_quantity <dbl>, ask_5_price <dbl>,
## #   ask_5_quantity <dbl>, bid_1_price <dbl>, bid_1_quantity <dbl>, bid_2_price <dbl>, bid_2_quantity <dbl>,
## #   bid_3_price <dbl>, bid_3_quantity <dbl>, bid_4_price <dbl>, bid_4_quantity <dbl>, bid_5_price <dbl>,
## #   bid_5_quantity <dbl>, date_time_utc <dttm>, date <date>, pkDummy <chr>, pkey <chr>

And nested

nest(cryptodata)

## # A tibble: 218 x 2
## # Groups:   symbol [218]
##    symbol data                 
##    <chr>  <list>               
##  1 BTC    <tibble [2,272 x 26]>
##  2 ETH    <tibble [1,396 x 26]>
##  3 EOS    <tibble [2,225 x 26]>
##  4 LTC    <tibble [2,272 x 26]>
##  5 BSV    <tibble [1,515 x 26]>
##  6 ADA    <tibble [1,158 x 26]>
##  7 ZEC    <tibble [1,113 x 26]>
##  8 TRX    <tibble [1,493 x 26]>
##  9 HT     <tibble [2,207 x 26]>
## 10 XMR    <tibble [2,266 x 26]>
## # ... with 208 more rows
